…
In a next step, all stored queries are loaded from the RDS files and put together. Subsequently, only the newest time stamped entry about each tweet is kept - this ensures that the re-tweeted counts are up-to-date and no post is counted twice. All these data wrangling operations are easily conducted using `dplyr`. Of course a full database solution would have been more elegant, but R does the job just as well as long it's not millions of queries. Actually, in the example I'm going to use the results of a single query. No matter the data backend, at the end of this pipeline we have a database of tweets. 




```r
#Read the tweet database
tw <- readRDS(file=paste0(filePath,"Tweets-Database-",safe_query,"-","2016-09-26",".RDS"))
options(width=300,tibble.width = Inf)
tw %>% select(created_at, retweet_count,screen_name,text,hashtags,query_at)
```

```
## # A tibble: 12,931 × 6
##             created_at retweet_count     screen_name                                                                                                                                         text  hashtags            query_at
##                 <dttm>         <int>           <chr>                                                                                                                                        <chr>    <list>              <dttm>
## 1  2016-09-25 06:16:28             6 christinebygrav  RT @GEEKYGIRLMMM: #TheWalkingDead #zombie #handmade #travel bag set https://t.co/rdGveWjBVC  #epiconetsy #craftshout #twdfanbas https://t.c <chr [7]> 2016-09-25 10:30:44
## 2  2016-09-25 05:53:37             2 christinebygrav  RT @GEEKYGIRLMMM: #TheWalkingDead #zombie #handmade #travel bag set https://t.co/rdGveWjBVC  #epiconetsy #craftshout #twdfanbas https://t.c <chr [7]> 2016-09-25 10:30:44
## 3  2016-09-25 04:45:11             0 KneelBeforeBlog   #TheGirlWithAlltheGifts #MovieReview https://t.co/Oewq6gShPx #GemmaArterton #PaddyConsidine #GlennClose #SenniaNanua #ColmMcCarthy #zombie <chr [8]> 2016-09-25 10:30:44
## 4  2016-09-25 04:45:10             0     Nemesis4909   #TheGirlWithAlltheGifts #MovieReview https://t.co/AEhhGWYsmw #GemmaArterton #PaddyConsidine #GlennClose #SenniaNanua #ColmMcCarthy #zombie <chr [8]> 2016-09-25 10:30:44
## 5  2016-09-25 04:28:51             1      donaldo945  RT @NorthWestDecks: Sonic The Hedgehog ZOMBIE Skateboard! #northwestdecks #skateboard #skateboarding #skate #skater #skatelife #zombie http <chr [7]> 2016-09-25 10:30:44
## 6  2016-09-25 04:03:48             2    clarksonm369   RT @thelovelymars: Throwback to being walkers for Halloween with this chica. #TheWalkingDead #walkers #zombie #twd https://t.co/xPqVnUrAwU <chr [4]> 2016-09-25 10:30:44
## 7  2016-09-25 01:45:55            62     ColleenTews RT @PennilessScribe: He would end her pain, but he could no longer live in a world that demanded such sacrifice. #zombie #apocalypse\nhttps: <chr [2]> 2016-09-25 10:30:44
## 8  2016-09-24 23:45:22             0     Nemesis4909   #TheGirlWithAlltheGifts #MovieReview https://t.co/AEhhGWYsmw #GemmaArterton #PaddyConsidine #ColmMcCarthy #GlennClose #SenniaNanua #zombie <chr [8]> 2016-09-25 10:30:44
## 9  2016-09-24 23:45:21             0 KneelBeforeBlog   #TheGirlWithAlltheGifts #MovieReview https://t.co/Oewq6gShPx #GemmaArterton #PaddyConsidine #ColmMcCarthy #GlennClose #SenniaNanua #zombie <chr [8]> 2016-09-25 10:30:44
## 10 2016-09-24 23:20:07             2   BlizzGetsBizz   RT @tr1lla_van1lla: hit me in advance for Halloween makeup!!! so excited for fall  #specialeffects #sfx #makeup #halloween #zombie https:/ <chr [5]> 2016-09-25 10:30:44
## # ... with 12,921 more rows
```
…
