…
  ##Done
  return(people)
}

##Create mountain plot data set for gm_recent with default spacing.
(people <- make_mountain_df(gm_recent))
```

```
## # A tibble: 176 x 13
## # Groups:   region [4]
##   region log2x     x   xm1 log2xm1 mid_log2  width width_log2 interval        interval_log2x      prob_mass   people year 
##   <chr>  <dbl> <dbl> <dbl>   <dbl>    <dbl>  <dbl>      <dbl> <chr>           <chr>                   <dbl>    <dbl> <chr>
## 1 Africa -1.75 0.297 0.25    -2      -1.88  0.0473       0.25 [   0.2-   0.3] [2^(-2.0)-2^(-1.8)]   0.00134 1586808. 2015 
## 2 Africa -1.5  0.354 0.297   -1.75   -1.62  0.0563       0.25 [   0.3-   0.4] [2^(-1.8)-2^(-1.5)]   0.00205 2432998. 2015 
## 3 Africa -1.25 0.420 0.354   -1.5    -1.38  0.0669       0.25 [   0.4-   0.4] [2^(-1.5)-2^(-1.2)]   0.00307 3639365. 2015 
## 4 Africa -1    0.5   0.420   -1.25   -1.12  0.0796       0.25 [   0.4-   0.5] [2^(-1.2)-2^(-1.0)]   0.00448 5305674. 2015 
## 5 Africa -0.75 0.595 0.5     -1      -0.875 0.0946       0.25 [   0.5-   0.6] [2^(-1.0)-2^(-0.8)]   0.00636 7537067. 2015 
## # ... with 171 more rows
```
…
